…
    ## file path:          C:\Users\xwang\AppData\Local\rnoaa\rnoaa\Cache/ghcnd/USS0023B17S.dly

    ## file last updated:  2019-09-19 21:40:15

    ## file min/max dates: 1999-09-01 / 2019-09-30

## `group_by` and counting

``` r
weather_df %>%
  group_by(name, month)
```

    ## # A tibble: 1,095 x 7
    ## # Groups:   name, month [36]
    ##    name           id          date       month       prcp  tmax  tmin
    ##    <chr>          <chr>       <date>     <date>     <dbl> <dbl> <dbl>
    ##  1 CentralPark_NY USW00094728 2017-01-01 2017-01-01     0   8.9   4.4
    ##  2 CentralPark_NY USW00094728 2017-01-02 2017-01-01    53   5     2.8
    ##  3 CentralPark_NY USW00094728 2017-01-03 2017-01-01   147   6.1   3.9
    ##  4 CentralPark_NY USW00094728 2017-01-04 2017-01-01     0  11.1   1.1
    ##  5 CentralPark_NY USW00094728 2017-01-05 2017-01-01     0   1.1  -2.7
    ##  6 CentralPark_NY USW00094728 2017-01-06 2017-01-01    13   0.6  -3.8
    ##  7 CentralPark_NY USW00094728 2017-01-07 2017-01-01    81  -3.2  -6.6
    ##  8 CentralPark_NY USW00094728 2017-01-08 2017-01-01     0  -3.8  -8.8
    ##  9 CentralPark_NY USW00094728 2017-01-09 2017-01-01     0  -4.9  -9.9
    ## 10 CentralPark_NY USW00094728 2017-01-10 2017-01-01     0   7.8  -6  
    ## # ... with 1,085 more rows
…
    ## # A tibble: 3 x 2
    ##   name           n_obs
    ##   <chr>          <int>
    ## 1 CentralPark_NY   365
    ## 2 Waikiki_HA       365
    ## 3 Waterhole_WA     365

``` r
weather_df %>%
  group_by(name, month) %>% 
  summarize(n_obs = n())
```

    ## # A tibble: 36 x 3
    ## # Groups:   name [3]
    ##    name           month      n_obs
    ##    <chr>          <date>     <int>
    ##  1 CentralPark_NY 2017-01-01    31
    ##  2 CentralPark_NY 2017-02-01    28
    ##  3 CentralPark_NY 2017-03-01    31
    ##  4 CentralPark_NY 2017-04-01    30
    ##  5 CentralPark_NY 2017-05-01    31
    ##  6 CentralPark_NY 2017-06-01    30
    ##  7 CentralPark_NY 2017-07-01    31
    ##  8 CentralPark_NY 2017-08-01    31
    ##  9 CentralPark_NY 2017-09-01    30
    ## 10 CentralPark_NY 2017-10-01    31
    ## # ... with 26 more rows
…
``` r
weather_df %>%
  count(name, month)
```

    ## # A tibble: 36 x 3
    ##    name           month          n
    ##    <chr>          <date>     <int>
    ##  1 CentralPark_NY 2017-01-01    31
    ##  2 CentralPark_NY 2017-02-01    28
    ##  3 CentralPark_NY 2017-03-01    31
    ##  4 CentralPark_NY 2017-04-01    30
    ##  5 CentralPark_NY 2017-05-01    31
    ##  6 CentralPark_NY 2017-06-01    30
    ##  7 CentralPark_NY 2017-07-01    31
    ##  8 CentralPark_NY 2017-08-01    31
    ##  9 CentralPark_NY 2017-09-01    30
    ## 10 CentralPark_NY 2017-10-01    31
    ## # ... with 26 more rows
…
## grouped mutates

(don’t forget you can ungroup …)

``` r
weather_df %>% 
  group_by(name) %>% 
  ungroup
```

    ## # A tibble: 1,095 x 7
    ##    name           id          date       month       prcp  tmax  tmin
    ##    <chr>          <chr>       <date>     <date>     <dbl> <dbl> <dbl>
    ##  1 CentralPark_NY USW00094728 2017-01-01 2017-01-01     0   8.9   4.4
    ##  2 CentralPark_NY USW00094728 2017-01-02 2017-01-01    53   5     2.8
    ##  3 CentralPark_NY USW00094728 2017-01-03 2017-01-01   147   6.1   3.9
    ##  4 CentralPark_NY USW00094728 2017-01-04 2017-01-01     0  11.1   1.1
    ##  5 CentralPark_NY USW00094728 2017-01-05 2017-01-01     0   1.1  -2.7
    ##  6 CentralPark_NY USW00094728 2017-01-06 2017-01-01    13   0.6  -3.8
    ##  7 CentralPark_NY USW00094728 2017-01-07 2017-01-01    81  -3.2  -6.6
    ##  8 CentralPark_NY USW00094728 2017-01-08 2017-01-01     0  -3.8  -8.8
    ##  9 CentralPark_NY USW00094728 2017-01-09 2017-01-01     0  -4.9  -9.9
    ## 10 CentralPark_NY USW00094728 2017-01-10 2017-01-01     0   7.8  -6  
    ## # ... with 1,085 more rows
…
<img src="eda_files/figure-gfm/unnamed-chunk-15-1.png" width="90%" />

window functions in grouped mutates …

``` r
weather_df %>%
  group_by(name, month) %>%
  mutate(tmax_ranking = min_rank(tmax)) %>% 
  filter(tmax_ranking == 1)
```

    ## # A tibble: 42 x 8
    ## # Groups:   name, month [36]
    ##    name       id       date       month       prcp  tmax  tmin tmax_ranking
    ##    <chr>      <chr>    <date>     <date>     <dbl> <dbl> <dbl>        <int>
    ##  1 CentralPa~ USW0009~ 2017-01-09 2017-01-01     0  -4.9  -9.9            1
    ##  2 CentralPa~ USW0009~ 2017-02-10 2017-02-01     0   0    -7.1            1
    ##  3 CentralPa~ USW0009~ 2017-03-15 2017-03-01     0  -3.2  -6.6            1
    ##  4 CentralPa~ USW0009~ 2017-04-01 2017-04-01     0   8.9   2.8            1
    ##  5 CentralPa~ USW0009~ 2017-05-13 2017-05-01   409  11.7   7.2            1
    ##  6 CentralPa~ USW0009~ 2017-06-06 2017-06-01    15  14.4  11.1            1
    ##  7 CentralPa~ USW0009~ 2017-07-25 2017-07-01     0  21.7  16.7            1
    ##  8 CentralPa~ USW0009~ 2017-08-29 2017-08-01    74  20    16.1            1
    ##  9 CentralPa~ USW0009~ 2017-09-30 2017-09-01     0  18.9  12.2            1
    ## 10 CentralPa~ USW0009~ 2017-10-31 2017-10-01     0  13.9   7.2            1
    ## # ... with 32 more rows
…
